{
  "project_info": {
    "project_number": "430535667961",
    "project_id": "zendesksdkdemo",
    "storage_bucket": "zendesksdkdemo.appspot.com"
  },
  "client": [
    {
      "client_info": {
        "mobilesdk_app_id": "1:430535667961:android:413718e5a905eec1cf3228",
        "android_client_info": {
          "package_name": "com.example.zendesksdkdemo"
        }
      },
      "oauth_client": [
        {
          "client_id": "430535667961-sl0nd3dh5efijeubfsesklfnsjb9mt68.apps.googleusercontent.com",
          "client_type": 3
        }
      ],
      "api_key": [
        {
          "current_key": "AIzaSyBnITMW643qefxpFsz4xH9Orr-O7XAPtKw"
        }
      ],
      "services": {
        "appinvite_service": {
          "other_platform_oauth_client": [
            {
              "client_id": "430535667961-sl0nd3dh5efijeubfsesklfnsjb9mt68.apps.googleusercontent.com",
              "client_type": 3
            }
          ]
        }
      }
    }
  ],
  "configuration_version": "1"
}